module hello-aws

go 1.16

require (
	github.com/aws/aws-sdk-go-v2 v1.2.1 // indirect
	github.com/aws/aws-sdk-go-v2/config v1.1.2 // indirect
	github.com/aws/aws-sdk-go-v2/service/sqs v1.1.2 // indirect
)
